﻿{
  "name": "BBB Resolver",
  "description": "",
  "type": "DEA",
  "automaton": {
    "simulationInput": [],
    "Alphabet": [
      "n",
      "a",
      "m",
      "e",
      "r",
      "o",
      "null",
      "and",
      "eq",
      "char",
      "illegalchar"
    ],
    "StackAlphabet": [
      "|"
    ],
    "States": [
      {
        "ID": 1,
        "Name": "start",
        "x": 420,
        "y": 400,
        "Final": false,
        "Radius": 30,
        "Transitions": [
          {
            "Source": 1,
            "Target": 3,
            "x": 0,
            "y": 0,
            "Labels": [
              "n"
            ]
          },
          {
            "Source": 1,
            "Target": 4,
            "x": 0,
            "y": 0,
            "Labels": [
              "r"
            ]
          },
          {
            "Source": 1,
            "Target": 13,
            "x": 0,
            "y": -50,
            "Labels": [
              "a",
              "and",
              "char",
              "e",
              "eq",
              "illegalchar",
              "m",
              "null",
              "o"
            ]
          }
        ],
        "Start": true
      },
      {
        "ID": 2,
        "Name": "end",
        "x": 1430,
        "y": 360,
        "Final": true,
        "Radius": 30,
        "Transitions": [
          {
            "Source": 2,
            "Target": 13,
            "x": 0,
            "y": 0,
            "Labels": [
              "a",
              "and",
              "char",
              "e",
              "eq",
              "illegalchar",
              "m",
              "n",
              "null",
              "o",
              "r"
            ]
          }
        ],
        "Start": false
      },
      {
        "ID": 3,
        "Name": "knn",
        "x": 600,
        "y": 170,
        "Final": false,
        "Radius": 30,
        "Transitions": [
          {
            "Source": 3,
            "Target": 7,
            "x": 0,
            "y": 0,
            "Labels": [
              "a"
            ]
          },
          {
            "Source": 3,
            "Target": 13,
            "x": 110,
            "y": 270,
            "Labels": [
              "and",
              "char",
              "e",
              "eq",
              "illegalchar",
              "m",
              "n",
              "null",
              "o",
              "r"
            ]
          }
        ],
        "Start": false
      },
      {
        "ID": 4,
        "Name": "krr",
        "x": 630,
        "y": 570,
        "Final": false,
        "Radius": 30,
        "Transitions": [
          {
            "Source": 4,
            "Target": 8,
            "x": 0,
            "y": 0,
            "Labels": [
              "o"
            ]
          },
          {
            "Source": 4,
            "Target": 13,
            "x": -140,
            "y": -630,
            "Labels": [
              "a",
              "and",
              "char",
              "e",
              "eq",
              "illegalchar",
              "m",
              "n",
              "null",
              "r"
            ]
          }
        ],
        "Start": false
      },
      {
        "ID": 5,
        "Name": "kne",
        "x": 1020,
        "y": 180,
        "Final": false,
        "Radius": 30,
        "Transitions": [
          {
            "Source": 5,
            "Target": 11,
            "x": 0,
            "y": 0,
            "Labels": [
              "eq"
            ]
          },
          {
            "Source": 5,
            "Target": 13,
            "x": 30,
            "y": 180,
            "Labels": [
              "a",
              "and",
              "char",
              "e",
              "illegalchar",
              "m",
              "n",
              "null",
              "o",
              "r"
            ]
          }
        ],
        "Start": false
      },
      {
        "ID": 6,
        "Name": "knm",
        "x": 860,
        "y": 180,
        "Final": false,
        "Radius": 30,
        "Transitions": [
          {
            "Source": 6,
            "Target": 5,
            "x": 0,
            "y": 0,
            "Labels": [
              "e"
            ]
          },
          {
            "Source": 6,
            "Target": 13,
            "x": 50,
            "y": 260,
            "Labels": [
              "a",
              "and",
              "char",
              "eq",
              "illegalchar",
              "m",
              "n",
              "null",
              "o",
              "r"
            ]
          }
        ],
        "Start": false
      },
      {
        "ID": 7,
        "Name": "kna",
        "x": 730,
        "y": 180,
        "Final": false,
        "Radius": 30,
        "Transitions": [
          {
            "Source": 7,
            "Target": 6,
            "x": 0,
            "y": 0,
            "Labels": [
              "m"
            ]
          },
          {
            "Source": 7,
            "Target": 13,
            "x": 80,
            "y": 260,
            "Labels": [
              "a",
              "and",
              "char",
              "e",
              "eq",
              "illegalchar",
              "n",
              "null",
              "o",
              "r"
            ]
          }
        ],
        "Start": false
      },
      {
        "ID": 8,
        "Name": "kro1",
        "x": 750,
        "y": 570,
        "Final": false,
        "Radius": 30,
        "Transitions": [
          {
            "Source": 8,
            "Target": 9,
            "x": 0,
            "y": 0,
            "Labels": [
              "o"
            ]
          },
          {
            "Source": 8,
            "Target": 13,
            "x": -90,
            "y": -530,
            "Labels": [
              "a",
              "and",
              "char",
              "e",
              "eq",
              "illegalchar",
              "m",
              "n",
              "null",
              "r"
            ]
          }
        ],
        "Start": false
      },
      {
        "ID": 9,
        "Name": "kro2",
        "x": 880,
        "y": 570,
        "Final": false,
        "Radius": 30,
        "Transitions": [
          {
            "Source": 9,
            "Target": 10,
            "x": 0,
            "y": 0,
            "Labels": [
              "m"
            ]
          },
          {
            "Source": 9,
            "Target": 13,
            "x": 0,
            "y": -520,
            "Labels": [
              "a",
              "and",
              "char",
              "e",
              "eq",
              "illegalchar",
              "n",
              "null",
              "o",
              "r"
            ]
          }
        ],
        "Start": false
      },
      {
        "ID": 10,
        "Name": "krm",
        "x": 1030,
        "y": 570,
        "Final": false,
        "Radius": 30,
        "Transitions": [
          {
            "Source": 10,
            "Target": 12,
            "x": 0,
            "y": 0,
            "Labels": [
              "eq"
            ]
          },
          {
            "Source": 10,
            "Target": 13,
            "x": -20,
            "y": -380,
            "Labels": [
              "a",
              "and",
              "char",
              "e",
              "illegalchar",
              "m",
              "n",
              "null",
              "o",
              "r"
            ]
          }
        ],
        "Start": false
      },
      {
        "ID": 11,
        "Name": "vname",
        "x": 1240,
        "y": 230,
        "Final": false,
        "Radius": 30,
        "Transitions": [
          {
            "Source": 11,
            "Target": 2,
            "x": 0,
            "y": 0,
            "Labels": [
              "null"
            ]
          },
          {
            "Source": 11,
            "Target": 1,
            "x": 0,
            "y": 0,
            "Labels": [
              "and"
            ]
          },
          {
            "Source": 11,
            "Target": 11,
            "x": 80,
            "y": -100,
            "Labels": [
              "a",
              "char",
              "e",
              "m",
              "n",
              "o",
              "r"
            ]
          },
          {
            "Source": 11,
            "Target": 13,
            "x": 20,
            "y": 70,
            "Labels": [
              "eq",
              "illegalchar"
            ]
          }
        ],
        "Start": false
      },
      {
        "ID": 12,
        "Name": "vroom",
        "x": 1250,
        "y": 520,
        "Final": false,
        "Radius": 30,
        "Transitions": [
          {
            "Source": 12,
            "Target": 2,
            "x": -20,
            "y": 0,
            "Labels": [
              "null"
            ]
          },
          {
            "Source": 12,
            "Target": 1,
            "x": 0,
            "y": -20,
            "Labels": [
              "and"
            ]
          },
          {
            "Source": 12,
            "Target": 12,
            "x": 90,
            "y": 110,
            "Labels": [
              "a",
              "char",
              "e",
              "m",
              "n",
              "o",
              "r"
            ]
          },
          {
            "Source": 12,
            "Target": 13,
            "x": -10,
            "y": -40,
            "Labels": [
              "eq",
              "illegalchar"
            ]
          }
        ],
        "Start": false
      },
      {
        "ID": 13,
        "Name": "error",
        "x": 1790,
        "y": 360,
        "Final": false,
        "Radius": 30,
        "Transitions": [
          {
            "Source": 13,
            "Target": 13,
            "x": 110,
            "y": 10,
            "Labels": [
              "a",
              "and",
              "char",
              "e",
              "eq",
              "illegalchar",
              "m",
              "n",
              "null",
              "o",
              "r"
            ]
          }
        ],
        "Start": false
      }
    ],
    "lastInputs": []
  }
}